{
  "version": "1.0",
  "exportDate": "2026-05-31T03:31:36.573Z",
  "totalGroups": 287,
  "pageSize": 48,
  "totalPages": 6,
  "pages": [
    {
      "name": "page-1.json",
      "start": 1,
      "end": 48,
      "count": 48
    },
    {
      "name": "page-2.json",
      "start": 49,
      "end": 96,
      "count": 48
    },
    {
      "name": "page-3.json",
      "start": 97,
      "end": 144,
      "count": 48
    },
    {
      "name": "page-4.json",
      "start": 145,
      "end": 192,
      "count": 48
    },
    {
      "name": "page-5.json",
      "start": 193,
      "end": 240,
      "count": 48
    },
    {
      "name": "page-6.json",
      "start": 241,
      "end": 287,
      "count": 47
    }
  ],
  "topics": [
    {
      "id": "all",
      "label": "全部",
      "totalGroups": 287,
      "totalPages": 6,
      "pages": [
        {
          "name": "page-1.json",
          "start": 1,
          "end": 48,
          "count": 48
        },
        {
          "name": "page-2.json",
          "start": 49,
          "end": 96,
          "count": 48
        },
        {
          "name": "page-3.json",
          "start": 97,
          "end": 144,
          "count": 48
        },
        {
          "name": "page-4.json",
          "start": 145,
          "end": 192,
          "count": 48
        },
        {
          "name": "page-5.json",
          "start": 193,
          "end": 240,
          "count": 48
        },
        {
          "name": "page-6.json",
          "start": 241,
          "end": 287,
          "count": 47
        }
      ]
    },
    {
      "id": "bilibili",
      "label": "bilibili",
      "totalGroups": 5,
      "totalPages": 1,
      "pages": [
        {
          "name": "bilibili-page-1.json",
          "start": 1,
          "end": 5,
          "count": 5
        }
      ]
    },
    {
      "id": "telegram",
      "label": "telegram",
      "totalGroups": 48,
      "totalPages": 1,
      "pages": [
        {
          "name": "telegram-page-1.json",
          "start": 1,
          "end": 48,
          "count": 48
        }
      ]
    },
    {
      "id": "x",
      "label": "X",
      "totalGroups": 86,
      "totalPages": 2,
      "pages": [
        {
          "name": "x-page-1.json",
          "start": 1,
          "end": 48,
          "count": 48
        },
        {
          "name": "x-page-2.json",
          "start": 49,
          "end": 86,
          "count": 38
        }
      ]
    },
    {
      "id": "other",
      "label": "其他",
      "totalGroups": 138,
      "totalPages": 3,
      "pages": [
        {
          "name": "other-page-1.json",
          "start": 1,
          "end": 48,
          "count": 48
        },
        {
          "name": "other-page-2.json",
          "start": 49,
          "end": 96,
          "count": 48
        },
        {
          "name": "other-page-3.json",
          "start": 97,
          "end": 138,
          "count": 42
        }
      ]
    },
    {
      "id": "OC",
      "label": "OC",
      "totalGroups": 5,
      "totalPages": 1,
      "pages": [
        {
          "name": "OC-page-1.json",
          "start": 1,
          "end": 5,
          "count": 5
        }
      ]
    },
    {
      "id": "emoji",
      "label": "emoji",
      "totalGroups": 2,
      "totalPages": 1,
      "pages": [
        {
          "name": "emoji-page-1.json",
          "start": 1,
          "end": 2,
          "count": 2
        }
      ]
    },
    {
      "id": "animated",
      "label": "动画表情",
      "totalGroups": 2,
      "totalPages": 1,
      "pages": [
        {
          "name": "animated-page-1.json",
          "start": 1,
          "end": 2,
          "count": 2
        }
      ]
    },
    {
      "id": "linux.do",
      "label": "linux.do",
      "totalGroups": 1,
      "totalPages": 1,
      "pages": [
        {
          "name": "linux.do-page-1.json",
          "start": 1,
          "end": 1,
          "count": 1
        }
      ]
    }
  ]
}